{
	"id": "691f3223-3ac5-47ae-a335-e9bdb39a06e8",
	"name": "ToolsList",
	"values": [
		{
			"key": "name",
			"value": "NewName",
			"type": "text",
			"description": "",
			"enabled": true
		},
		{
			"key": "use",
			"value": "NewUse",
			"type": "text",
			"description": "",
			"enabled": true
		},
		{
			"key": "website",
			"value": "NewWebsite",
			"type": "text",
			"description": "",
			"enabled": true
		}
	],
	"_postman_variable_scope": "environment",
	"_postman_exported_at": "2018-12-13T15:29:55.885Z",
	"_postman_exported_using": "Postman/6.5.3"
}